{
	"info": {
		"_postman_id": "5c385ad5-9671-43cf-8868-56194d365b90",
		"name": "Produtos",
		"description": "Testes de requests dos produtos",
		"schema": "https://schema.getpostman.com/json/collection/v2.1.0/collection.json"
	},
	"item": [
		{
			"name": "Cadastro de produtos",
			"request": {
				"method": "POST",
				"header": [],
				"body": {
					"mode": "raw",
					"raw": "{\n    \"nome\": \"Cadeira gamer\",\n    \"cor\": \"Vermelha\",\n    \"tamanho\": \"único\",\n    \"valor\": \"199.90\"\n}",
					"options": {
						"raw": {
							"language": "json"
						}
					}
				},
				"url": {
					"raw": "localhost/produtos",
					"host": [
						"localhost"
					],
					"path": [
						"produtos"
					]
				},
				"description": "Exibe os detalhes de um produto"
			},
			"response": []
		},
		{
			"name": "Listagem de produtos",
			"request": {
				"method": "GET",
				"header": [],
				"url": {
					"raw": "localhost/produtos",
					"host": [
						"localhost"
					],
					"path": [
						"produtos"
					]
				},
				"description": "listagem de todos os produtos cadastrados"
			},
			"response": []
		},
		{
			"name": "Detalhes do produto",
			"request": {
				"method": "GET",
				"header": [],
				"url": {
					"raw": "localhost/produtos/1",
					"host": [
						"localhost"
					],
					"path": [
						"produtos",
						"1"
					]
				},
				"description": "Exibe detalhes de um produto"
			},
			"response": []
		},
		{
			"name": "Atualizar produto",
			"request": {
				"method": "PUT",
				"header": [],
				"body": {
					"mode": "raw",
					"raw": "{\n    \"nome\" : \"Cadeira gamer\",\n    \"cor\" : \"Preto\",\n    \"tamanho\": \"único\",\n    \"valor\": 89.90\n}",
					"options": {
						"raw": {
							"language": "json"
						}
					}
				},
				"url": {
					"raw": "localhost/produtos/1",
					"host": [
						"localhost"
					],
					"path": [
						"produtos",
						"1"
					]
				},
				"description": "Atualiza dados de um produto"
			},
			"response": []
		},
		{
			"name": "Deletar produto",
			"request": {
				"method": "DELETE",
				"header": [],
				"url": {
					"raw": "localhost/produtos/1",
					"host": [
						"localhost"
					],
					"path": [
						"produtos",
						"1"
					]
				},
				"description": "Deleta um produto"
			},
			"response": []
		}
	],
	"protocolProfileBehavior": {}
}